IFX/problem_8/trace.vcd
$date
     May 15, 2024       17:02:17
$end

$version
 SystemC 2.3.3-Accellera --- Mar 29 2024 09:50:37
$end

$timescale
     1 ps
$end

$scope module SystemC $end
$var wire    1  aaaaa  A1       $end
$var wire    1  aaaab  A0       $end
$var wire    1  aaaac  EnableInput       $end
$var wire    1  aaaad  Y0       $end
$var wire    1  aaaae  Y1       $end
$var wire    1  aaaaf  Y2       $end
$var wire    1  aaaag  Y3       $end
$upscope $end
$enddefinitions  $end

$comment
All initial values are dumped below at time 0 sec = 0 timescale units.
$end

$dumpvars
0aaaaa
0aaaab
0aaaac
0aaaad
0aaaae
0aaaaf
0aaaag
$end

#2000
1aaaad

#4000
0aaaad
1aaaae

#6000
0aaaae
1aaaaf

#8000
0aaaaf
1aaaag

#10000
1aaaac
0aaaag

#12000
1aaaad

#14000
1aaaab
0aaaad
1aaaae

#16000
1aaaaa
0aaaab
0aaaae
1aaaaf

#18000
1aaaab
0aaaaf
1aaaag

#20000
0aaaac
1aaaae
0aaaag

