IFX/problem_18/traces.vcd
$date
     May 17, 2024       10:49:59
$end

$version
 SystemC 2.3.3-Accellera --- Mar 29 2024 09:50:37
$end

$timescale
     1 ps
$end

$scope module SystemC $end
$var wire    1  aaaaa  rx       $end
$var wire    1  aaaab  tx       $end
$var wire    1  aaaac  clk       $end
$var wire   32  aaaad  UART_CONTROL_REG [31:0]  $end
$var wire   32  aaaae  UART_RX_REG [31:0]  $end
$var wire   32  aaaaf  UART_TX_REG [31:0]  $end
$upscope $end
$enddefinitions  $end

$comment
All initial values are dumped below at time 0 sec = 0 timescale units.
$end

$dumpvars
1aaaaa
0aaaab
0aaaac
b11001000000000001010001 aaaad
b0 aaaae
b10101010 aaaaf
$end

#60000
1aaaac

#110000
0aaaac

#160000
1aaaac

#200000
1aaaab

#210000
0aaaac

#260000
1aaaac

#300000
0aaaab

#310000
0aaaac

#360000
1aaaac

#400000
1aaaab

#410000
0aaaac

#460000
1aaaac

#500000
0aaaab

#510000
0aaaac

#560000
1aaaac

#600000
1aaaab

#610000
0aaaac

#660000
1aaaac

#700000
0aaaab

#710000
0aaaac

#760000
1aaaac

#800000
1aaaab

#810000
0aaaac

#860000
1aaaac

#910000
0aaaac

#960000
1aaaac

#1000000
0aaaaa
b11001000000000000010001 aaaad

#1010000
0aaaac

#1060000
1aaaac

#1110000
0aaaac

#1160000
1aaaac

#1200000
1aaaaa

#1210000
0aaaac

#1260000
1aaaac
b10 aaaae

#1300000
0aaaaa

#1310000
0aaaac

#1360000
1aaaac

#1400000
1aaaaa

#1410000
0aaaac

#1460000
1aaaac
b1010 aaaae

#1500000
0aaaaa

#1510000
0aaaac

#1560000
1aaaac

#1600000
1aaaaa

#1610000
0aaaac

#1660000
1aaaac
b101010 aaaae

#1700000
0aaaaa

#1710000
0aaaac

#1760000
1aaaac

#1800000
1aaaaa

#1810000
0aaaac

#1860000
1aaaac
b10101010 aaaae

#1910000
0aaaac

#1960000
1aaaac

#2000000
0aaaab
b1100100000000001010001 aaaad
b10110110 aaaaf

#2010000
0aaaac

#2035000
1aaaac

#2060000
0aaaac

#2085000
1aaaac

#2100000
1aaaab

#2110000
0aaaac

#2135000
1aaaac

#2160000
0aaaac

#2185000
1aaaac

#2200000
0aaaab

#2210000
0aaaac

#2235000
1aaaac

#2250000
1aaaab

#2260000
0aaaac

#2285000
1aaaac

#2310000
0aaaac

#2335000
1aaaac

#2350000
0aaaab

#2360000
0aaaac

#2385000
1aaaac

#2400000
1aaaab

#2410000
0aaaac

#2435000
1aaaac

#2460000
0aaaac

#2485000
1aaaac

#2500000
0aaaaa
b1100100000000000010001 aaaad

#2510000
0aaaac

#2535000
1aaaac
b0 aaaae

#2560000
0aaaac

#2585000
1aaaac

#2600000
1aaaaa

#2610000
0aaaac

#2635000
1aaaac
b10 aaaae

#2660000
0aaaac

#2685000
1aaaac
b110 aaaae

#2700000
0aaaaa

#2710000
0aaaac

#2735000
1aaaac

#2750000
1aaaaa

#2760000
0aaaac

#2785000
1aaaac
b10110 aaaae

#2810000
0aaaac

#2835000
1aaaac
b110110 aaaae

#2850000
0aaaaa

#2860000
0aaaac

#2885000
1aaaac

#2900000
1aaaaa

#2910000
0aaaac

#2935000
1aaaac
b10110110 aaaae

#2960000
0aaaac

#2985000
1aaaac

#3000000
0aaaab
b110010000000000001001011 aaaad
b11010 aaaaf

#3010000
0aaaac

#3110000
1aaaac

#3210000
0aaaac

#3310000
1aaaac

#3400000
1aaaab

#3410000
0aaaac

#3510000
1aaaac

#3600000
0aaaab

#3610000
0aaaac

#3710000
1aaaac

#3800000
1aaaab

#3810000
0aaaac

#3910000
1aaaac

#4010000
0aaaac

#4110000
1aaaac

#4210000
0aaaac

#4310000
1aaaac

#4400000
0aaaaa
b110010000000000000001011 aaaad

#4410000
0aaaac

#4510000
1aaaac
b0 aaaae

#4610000
0aaaac

#4710000
1aaaac

#4800000
1aaaaa

#4810000
0aaaac

#4910000
1aaaac
b10 aaaae

#5000000
0aaaaa

#5010000
0aaaac

#5110000
1aaaac

#5200000
1aaaaa

#5210000
0aaaac

#5310000
1aaaac
b1010 aaaae

#5410000
0aaaac

#5510000
1aaaac
b11010 aaaae

#5610000
0aaaac

#5710000
1aaaac

#5800000
0aaaab
b1100100000000001010101 aaaad
b1101101010 aaaaf

#5810000
0aaaac

#5835000
1aaaac

#5860000
0aaaac

#5885000
1aaaac

#5900000
1aaaab

#5910000
0aaaac

#5935000
1aaaac

#5950000
0aaaab

#5960000
0aaaac

#5985000
1aaaac

#6000000
1aaaab

#6010000
0aaaac

#6035000
1aaaac

#6050000
0aaaab

#6060000
0aaaac

#6085000
1aaaac

#6100000
1aaaab

#6110000
0aaaac

#6135000
1aaaac

#6160000
0aaaac

#6185000
1aaaac

#6200000
0aaaab

#6210000
0aaaac

#6235000
1aaaac

#6260000
0aaaac

#6285000
1aaaac

#6310000
0aaaac

#6335000
1aaaac

#6350000
1aaaab

#6360000
0aaaac

#6385000
1aaaac

#6400000
0aaaaa
b1100100000000000010101 aaaad

#6410000
0aaaac

#6435000
1aaaac
b0 aaaae

#6460000
0aaaac

#6485000
1aaaac

#6500000
1aaaaa

#6510000
0aaaac

#6535000
1aaaac
b10 aaaae

#6550000
0aaaaa

#6560000
0aaaac

#6585000
1aaaac

#6600000
1aaaaa

#6610000
0aaaac

#6635000
1aaaac
b1010 aaaae

#6650000
0aaaaa

#6660000
0aaaac

#6685000
1aaaac

#6700000
1aaaaa

#6710000
0aaaac

#6735000
1aaaac
b101010 aaaae

#6760000
0aaaac

#6785000
1aaaac
b1101010 aaaae

#6800000
0aaaaa

#6810000
0aaaac

#6835000
1aaaac

#6860000
0aaaac

#6885000
1aaaac

#6910000
0aaaac

#6935000
1aaaac

#6950000
1aaaaa

#6960000
0aaaac

#6985000
1aaaac

#7000000
0aaaab
b110010000000000001001111 aaaad
b10011 aaaaf

#7010000
0aaaac

#7110000
1aaaac

#7200000
1aaaab

#7210000
0aaaac

#7310000
1aaaac

#7410000
0aaaac

#7510000
1aaaac

#7600000
0aaaab

#7610000
0aaaac

#7710000
1aaaac

#7810000
0aaaac

#7910000
1aaaac

#8000000
1aaaab

#8010000
0aaaac

#8110000
1aaaac

#8200000
0aaaab

#8210000
0aaaac

#8310000
1aaaac

#8410000
0aaaac

#8510000
1aaaac

#8600000
1aaaab

#8610000
0aaaac

#8710000
1aaaac

#8800000
0aaaaa
b110010000000000000001111 aaaad

#8810000
0aaaac

#8910000
1aaaac
b0 aaaae

#9000000
1aaaaa

#9010000
0aaaac

#9110000
1aaaac
b1 aaaae

#9210000
0aaaac

#9310000
1aaaac
b11 aaaae

#9400000
0aaaaa

#9410000
0aaaac

#9510000
1aaaac

#9610000
0aaaac

#9710000
1aaaac

#9800000
1aaaaa

#9810000
0aaaac

#9910000
1aaaac
b10011 aaaae

#10000000
0aaaaa

#10010000
0aaaac

#10110000
1aaaac

#10210000
0aaaac

#10310000
1aaaac

#10400000
1aaaaa

