IFX/problem_12/trace.vcd
$date
     May 16, 2024       10:19:25
$end

$version
 SystemC 2.3.3-Accellera --- Mar 29 2024 09:50:37
$end

$timescale
     1 ps
$end

$scope module SystemC $end
$var wire    1  aaaaa  clk       $end
$var wire    1  aaaab  rst       $end
$var wire    8  aaaac  addr [7:0]  $end
$var wire    8  aaaad  data [7:0]  $end
$var wire    1  aaaae  wen       $end
$var wire    1  aaaaf  irq0       $end
$var wire    1  aaaag  irq1       $end
$var wire   32  aaaah  TIMER_CONTROL_REG [31:0]  $end
$var wire   32  aaaai  TIMER_VALUE_REG [31:0]  $end
$var wire   32  aaaaj  TIMER_COMPARE_REG [31:0]  $end
$var wire   32  aaaak  TIMER_IRQ_STATUS_REG [31:0]  $end
$upscope $end
$enddefinitions  $end

$comment
All initial values are dumped below at time 0 sec = 0 timescale units.
$end

$dumpvars
1aaaaa
0aaaab
b0 aaaac
b0 aaaad
0aaaae
0aaaaf
0aaaag
b0 aaaah
b0 aaaai
b0 aaaaj
b0 aaaak
$end

#500
0aaaaa

#1000
1aaaaa
1aaaab
b1 aaaad
1aaaae
b1 aaaah
b1 aaaai

#1500
0aaaaa

#2000
1aaaaa
b10 aaaac
b1010 aaaad
b10 aaaai
b1010 aaaaj

#2500
0aaaaa

#3000
1aaaaa
b11 aaaac
b0 aaaad
b11 aaaai

#3500
0aaaaa

#4000
1aaaaa
b0 aaaac
b111 aaaad
b111 aaaah
b100 aaaai

#4500
0aaaaa

#5000
1aaaaa
b101 aaaai

#5500
0aaaaa

#6000
1aaaaa
b110 aaaai

#6500
0aaaaa

#7000
1aaaaa
b111 aaaai

#7500
0aaaaa

#8000
1aaaaa
b1000 aaaai

#8500
0aaaaa

#9000
1aaaaa
b1001 aaaai

#9500
0aaaaa

#10000
1aaaaa
1aaaaf
b1010 aaaai
b1 aaaak

#10500
0aaaaa

#11000
1aaaaa
b11 aaaac
0aaaae
0aaaaf
b1011 aaaai

#11500
0aaaaa

#12000
1aaaaa
b0 aaaac
b101 aaaad
1aaaae
b101 aaaah
b1100 aaaai

#12500
0aaaaa

#13000
1aaaaa
b1101 aaaai

#13500
0aaaaa

#14000
1aaaaa
b1110 aaaai

#14500
0aaaaa

#15000
1aaaaa
b1111 aaaai

#15500
0aaaaa

#16000
1aaaaa
b10000 aaaai

#16500
0aaaaa

#17000
1aaaaa
b10001 aaaai

#17500
0aaaaa

#18000
1aaaaa
b10010 aaaai

#18500
0aaaaa

#19000
1aaaaa
b10011 aaaai

#19500
0aaaaa

#20000
1aaaaa
b10100 aaaai

#20500
0aaaaa

#21000
1aaaaa
b10101 aaaai

#21500
0aaaaa

#22000
1aaaaa
b10110 aaaai

#22500
0aaaaa

#23000
1aaaaa
b10111 aaaai

#23500
0aaaaa

#24000
1aaaaa
b11000 aaaai

#24500
0aaaaa

#25000
1aaaaa
b11001 aaaai

#25500
0aaaaa

#26000
1aaaaa
b11010 aaaai

#26500
0aaaaa

#27000
1aaaaa
b11011 aaaai

#27500
0aaaaa

#28000
1aaaaa
b11100 aaaai

#28500
0aaaaa

#29000
1aaaaa
b11101 aaaai

#29500
0aaaaa

#30000
1aaaaa
b11110 aaaai

#30500
0aaaaa

#31000
1aaaaa
b11111 aaaai

#31500
0aaaaa

#32000
1aaaaa
b100000 aaaai

#32500
0aaaaa

#33000
1aaaaa
b100001 aaaai

#33500
0aaaaa

#34000
1aaaaa
b100010 aaaai

#34500
0aaaaa

#35000
1aaaaa
b100011 aaaai

#35500
0aaaaa

#36000
1aaaaa
b100100 aaaai

#36500
0aaaaa

#37000
1aaaaa
b100101 aaaai

#37500
0aaaaa

#38000
1aaaaa
b100110 aaaai

#38500
0aaaaa

#39000
1aaaaa
b100111 aaaai

#39500
0aaaaa

#40000
1aaaaa
b101000 aaaai

#40500
0aaaaa

#41000
1aaaaa
b101001 aaaai

#41500
0aaaaa

#42000
1aaaaa
b101010 aaaai

#42500
0aaaaa

#43000
1aaaaa
b101011 aaaai

#43500
0aaaaa

#44000
1aaaaa
b101100 aaaai

#44500
0aaaaa

#45000
1aaaaa
b101101 aaaai

#45500
0aaaaa

#46000
1aaaaa
b101110 aaaai

#46500
0aaaaa

#47000
1aaaaa
b101111 aaaai

#47500
0aaaaa

#48000
1aaaaa
b110000 aaaai

#48500
0aaaaa

#49000
1aaaaa
b110001 aaaai

#49500
0aaaaa

#50000
1aaaaa
b110010 aaaai

#50500
0aaaaa

#51000
1aaaaa
b110011 aaaai

#51500
0aaaaa

#52000
1aaaaa
b110100 aaaai

#52500
0aaaaa

#53000
1aaaaa
b110101 aaaai

#53500
0aaaaa

#54000
1aaaaa
b110110 aaaai

#54500
0aaaaa

#55000
1aaaaa
b110111 aaaai

#55500
0aaaaa

#56000
1aaaaa
b111000 aaaai

#56500
0aaaaa

#57000
1aaaaa
b111001 aaaai

#57500
0aaaaa

#58000
1aaaaa
b111010 aaaai

#58500
0aaaaa

#59000
1aaaaa
b111011 aaaai

#59500
0aaaaa

#60000
1aaaaa
b111100 aaaai

#60500
0aaaaa

#61000
1aaaaa
b111101 aaaai

#61500
0aaaaa

#62000
1aaaaa
b111110 aaaai

#62500
0aaaaa

#63000
1aaaaa
b111111 aaaai

#63500
0aaaaa

#64000
1aaaaa
b1000000 aaaai

#64500
0aaaaa

#65000
1aaaaa
b1000001 aaaai

#65500
0aaaaa

#66000
1aaaaa
b1000010 aaaai

#66500
0aaaaa

#67000
1aaaaa
b1000011 aaaai

#67500
0aaaaa

#68000
1aaaaa
b1000100 aaaai

#68500
0aaaaa

#69000
1aaaaa
b1000101 aaaai

#69500
0aaaaa

#70000
1aaaaa
b1000110 aaaai

#70500
0aaaaa

#71000
1aaaaa
b1000111 aaaai

#71500
0aaaaa

#72000
1aaaaa
b1001000 aaaai

#72500
0aaaaa

#73000
1aaaaa
b1001001 aaaai

#73500
0aaaaa

#74000
1aaaaa
b1001010 aaaai

#74500
0aaaaa

#75000
1aaaaa
b1001011 aaaai

#75500
0aaaaa

#76000
1aaaaa
b1001100 aaaai

#76500
0aaaaa

#77000
1aaaaa
b1001101 aaaai

#77500
0aaaaa

#78000
1aaaaa
b1001110 aaaai

#78500
0aaaaa

#79000
1aaaaa
b1001111 aaaai

#79500
0aaaaa

#80000
1aaaaa
b1010000 aaaai

#80500
0aaaaa

#81000
1aaaaa
b1010001 aaaai

#81500
0aaaaa

#82000
1aaaaa
b1010010 aaaai

#82500
0aaaaa

#83000
1aaaaa
b1010011 aaaai

#83500
0aaaaa

#84000
1aaaaa
b1010100 aaaai

#84500
0aaaaa

#85000
1aaaaa
b1010101 aaaai

#85500
0aaaaa

#86000
1aaaaa
b1010110 aaaai

#86500
0aaaaa

#87000
1aaaaa
b1010111 aaaai

#87500
0aaaaa

#88000
1aaaaa
b1011000 aaaai

#88500
0aaaaa

#89000
1aaaaa
b1011001 aaaai

#89500
0aaaaa

#90000
1aaaaa
b1011010 aaaai

#90500
0aaaaa

#91000
1aaaaa
b1011011 aaaai

#91500
0aaaaa

#92000
1aaaaa
b1011100 aaaai

#92500
0aaaaa

#93000
1aaaaa
b1011101 aaaai

#93500
0aaaaa

#94000
1aaaaa
b1011110 aaaai

#94500
0aaaaa

#95000
1aaaaa
b1011111 aaaai

#95500
0aaaaa

#96000
1aaaaa
b1100000 aaaai

#96500
0aaaaa

#97000
1aaaaa
b1100001 aaaai

#97500
0aaaaa

#98000
1aaaaa
b1100010 aaaai

#98500
0aaaaa

#99000
1aaaaa
b1100011 aaaai

#99500
0aaaaa

#100000
1aaaaa
b1100100 aaaai

#100500
0aaaaa

#101000
1aaaaa
b1100101 aaaai

#101500
0aaaaa

#102000
1aaaaa
b1100110 aaaai

#102500
0aaaaa

#103000
1aaaaa
b1100111 aaaai

#103500
0aaaaa

#104000
1aaaaa
b1101000 aaaai

#104500
0aaaaa

#105000
1aaaaa
b1101001 aaaai

#105500
0aaaaa

#106000
1aaaaa
b1101010 aaaai

#106500
0aaaaa

#107000
1aaaaa
b1101011 aaaai

#107500
0aaaaa

#108000
1aaaaa
b1101100 aaaai

#108500
0aaaaa

#109000
1aaaaa
b1101101 aaaai

#109500
0aaaaa

#110000
1aaaaa
b1101110 aaaai

#110500
0aaaaa

#111000
1aaaaa
b1101111 aaaai

#111500
0aaaaa

#112000
1aaaaa
b1110000 aaaai

#112500
0aaaaa

#113000
1aaaaa
b1110001 aaaai

#113500
0aaaaa

#114000
1aaaaa
b1110010 aaaai

#114500
0aaaaa

#115000
1aaaaa
b1110011 aaaai

#115500
0aaaaa

#116000
1aaaaa
b1110100 aaaai

#116500
0aaaaa

#117000
1aaaaa
b1110101 aaaai

#117500
0aaaaa

#118000
1aaaaa
b1110110 aaaai

#118500
0aaaaa

#119000
1aaaaa
b1110111 aaaai

#119500
0aaaaa

#120000
1aaaaa
b1111000 aaaai

#120500
0aaaaa

#121000
1aaaaa
b1111001 aaaai

#121500
0aaaaa

#122000
1aaaaa
b1111010 aaaai

#122500
0aaaaa

#123000
1aaaaa
b1111011 aaaai

#123500
0aaaaa

#124000
1aaaaa
b1111100 aaaai

#124500
0aaaaa

#125000
1aaaaa
b1111101 aaaai

#125500
0aaaaa

#126000
1aaaaa
b1111110 aaaai

#126500
0aaaaa

#127000
1aaaaa
b1111111 aaaai

#127500
0aaaaa

#128000
1aaaaa
b10000000 aaaai

#128500
0aaaaa

#129000
1aaaaa
b10000001 aaaai

#129500
0aaaaa

#130000
1aaaaa
b10000010 aaaai

#130500
0aaaaa

#131000
1aaaaa
b10000011 aaaai

#131500
0aaaaa

#132000
1aaaaa
b10000100 aaaai

#132500
0aaaaa

#133000
1aaaaa
b10000101 aaaai

#133500
0aaaaa

#134000
1aaaaa
b10000110 aaaai

#134500
0aaaaa

#135000
1aaaaa
b10000111 aaaai

#135500
0aaaaa

#136000
1aaaaa
b10001000 aaaai

#136500
0aaaaa

#137000
1aaaaa
b10001001 aaaai

#137500
0aaaaa

#138000
1aaaaa
b10001010 aaaai

#138500
0aaaaa

#139000
1aaaaa
b10001011 aaaai

#139500
0aaaaa

#140000
1aaaaa
b10001100 aaaai

#140500
0aaaaa

#141000
1aaaaa
b10001101 aaaai

#141500
0aaaaa

#142000
1aaaaa
b10001110 aaaai

#142500
0aaaaa

#143000
1aaaaa
b10001111 aaaai

#143500
0aaaaa

#144000
1aaaaa
b10010000 aaaai

#144500
0aaaaa

#145000
1aaaaa
b10010001 aaaai

#145500
0aaaaa

#146000
1aaaaa
b10010010 aaaai

#146500
0aaaaa

#147000
1aaaaa
b10010011 aaaai

#147500
0aaaaa

#148000
1aaaaa
b10010100 aaaai

#148500
0aaaaa

#149000
1aaaaa
b10010101 aaaai

#149500
0aaaaa

#150000
1aaaaa
b10010110 aaaai

#150500
0aaaaa

#151000
1aaaaa
b10010111 aaaai

#151500
0aaaaa

#152000
1aaaaa
b10011000 aaaai

#152500
0aaaaa

#153000
1aaaaa
b10011001 aaaai

#153500
0aaaaa

#154000
1aaaaa
b10011010 aaaai

#154500
0aaaaa

#155000
1aaaaa
b10011011 aaaai

#155500
0aaaaa

#156000
1aaaaa
b10011100 aaaai

#156500
0aaaaa

#157000
1aaaaa
b10011101 aaaai

#157500
0aaaaa

#158000
1aaaaa
b10011110 aaaai

#158500
0aaaaa

#159000
1aaaaa
b10011111 aaaai

#159500
0aaaaa

#160000
1aaaaa
b10100000 aaaai

#160500
0aaaaa

#161000
1aaaaa
b10100001 aaaai

#161500
0aaaaa

#162000
1aaaaa
b10100010 aaaai

#162500
0aaaaa

#163000
1aaaaa
b10100011 aaaai

#163500
0aaaaa

#164000
1aaaaa
b10100100 aaaai

#164500
0aaaaa

#165000
1aaaaa
b10100101 aaaai

#165500
0aaaaa

#166000
1aaaaa
b10100110 aaaai

#166500
0aaaaa

#167000
1aaaaa
b10100111 aaaai

#167500
0aaaaa

#168000
1aaaaa
b10101000 aaaai

#168500
0aaaaa

#169000
1aaaaa
b10101001 aaaai

#169500
0aaaaa

#170000
1aaaaa
b10101010 aaaai

#170500
0aaaaa

#171000
1aaaaa
b10101011 aaaai

#171500
0aaaaa

#172000
1aaaaa
b10101100 aaaai

#172500
0aaaaa

#173000
1aaaaa
b10101101 aaaai

#173500
0aaaaa

#174000
1aaaaa
b10101110 aaaai

#174500
0aaaaa

#175000
1aaaaa
b10101111 aaaai

#175500
0aaaaa

#176000
1aaaaa
b10110000 aaaai

#176500
0aaaaa

#177000
1aaaaa
b10110001 aaaai

#177500
0aaaaa

#178000
1aaaaa
b10110010 aaaai

#178500
0aaaaa

#179000
1aaaaa
b10110011 aaaai

#179500
0aaaaa

#180000
1aaaaa
b10110100 aaaai

#180500
0aaaaa

#181000
1aaaaa
b10110101 aaaai

#181500
0aaaaa

#182000
1aaaaa
b10110110 aaaai

#182500
0aaaaa

#183000
1aaaaa
b10110111 aaaai

#183500
0aaaaa

#184000
1aaaaa
b10111000 aaaai

#184500
0aaaaa

#185000
1aaaaa
b10111001 aaaai

#185500
0aaaaa

#186000
1aaaaa
b10111010 aaaai

#186500
0aaaaa

#187000
1aaaaa
b10111011 aaaai

#187500
0aaaaa

#188000
1aaaaa
b10111100 aaaai

#188500
0aaaaa

#189000
1aaaaa
b10111101 aaaai

#189500
0aaaaa

#190000
1aaaaa
b10111110 aaaai

#190500
0aaaaa

#191000
1aaaaa
b10111111 aaaai

#191500
0aaaaa

#192000
1aaaaa
b11000000 aaaai

#192500
0aaaaa

#193000
1aaaaa
b11000001 aaaai

#193500
0aaaaa

#194000
1aaaaa
b11000010 aaaai

#194500
0aaaaa

#195000
1aaaaa
b11000011 aaaai

#195500
0aaaaa

#196000
1aaaaa
b11000100 aaaai

#196500
0aaaaa

#197000
1aaaaa
b11000101 aaaai

#197500
0aaaaa

#198000
1aaaaa
b11000110 aaaai

#198500
0aaaaa

#199000
1aaaaa
b11000111 aaaai

#199500
0aaaaa

#200000
1aaaaa
b11001000 aaaai

#200500
0aaaaa

#201000
1aaaaa
b11001001 aaaai

#201500
0aaaaa

#202000
1aaaaa
b11001010 aaaai

#202500
0aaaaa

#203000
1aaaaa
b11001011 aaaai

#203500
0aaaaa

#204000
1aaaaa
b11001100 aaaai

#204500
0aaaaa

#205000
1aaaaa
b11001101 aaaai

#205500
0aaaaa

#206000
1aaaaa
b11001110 aaaai

#206500
0aaaaa

#207000
1aaaaa
b11001111 aaaai

#207500
0aaaaa

#208000
1aaaaa
b11010000 aaaai

#208500
0aaaaa

#209000
1aaaaa
b11010001 aaaai

#209500
0aaaaa

#210000
1aaaaa
b11010010 aaaai

#210500
0aaaaa

#211000
1aaaaa
b11010011 aaaai

#211500
0aaaaa

#212000
1aaaaa
b11010100 aaaai

#212500
0aaaaa

#213000
1aaaaa
b11010101 aaaai

#213500
0aaaaa

#214000
1aaaaa
b11010110 aaaai

#214500
0aaaaa

#215000
1aaaaa
b11010111 aaaai

#215500
0aaaaa

#216000
1aaaaa
b11011000 aaaai

#216500
0aaaaa

#217000
1aaaaa
b11011001 aaaai

#217500
0aaaaa

#218000
1aaaaa
b11011010 aaaai

#218500
0aaaaa

#219000
1aaaaa
b11011011 aaaai

#219500
0aaaaa

#220000
1aaaaa
b11011100 aaaai

#220500
0aaaaa

#221000
1aaaaa
b11011101 aaaai

#221500
0aaaaa

#222000
1aaaaa
b11011110 aaaai

#222500
0aaaaa

#223000
1aaaaa
b11011111 aaaai

#223500
0aaaaa

#224000
1aaaaa
b11100000 aaaai

#224500
0aaaaa

#225000
1aaaaa
b11100001 aaaai

#225500
0aaaaa

#226000
1aaaaa
b11100010 aaaai

#226500
0aaaaa

#227000
1aaaaa
b11100011 aaaai

#227500
0aaaaa

#228000
1aaaaa
b11100100 aaaai

#228500
0aaaaa

#229000
1aaaaa
b11100101 aaaai

#229500
0aaaaa

#230000
1aaaaa
b11100110 aaaai

#230500
0aaaaa

#231000
1aaaaa
b11100111 aaaai

#231500
0aaaaa

#232000
1aaaaa
b11101000 aaaai

#232500
0aaaaa

#233000
1aaaaa
b11101001 aaaai

#233500
0aaaaa

#234000
1aaaaa
b11101010 aaaai

#234500
0aaaaa

#235000
1aaaaa
b11101011 aaaai

#235500
0aaaaa

#236000
1aaaaa
b11101100 aaaai

#236500
0aaaaa

#237000
1aaaaa
b11101101 aaaai

#237500
0aaaaa

#238000
1aaaaa
b11101110 aaaai

#238500
0aaaaa

#239000
1aaaaa
b11101111 aaaai

#239500
0aaaaa

#240000
1aaaaa
b11110000 aaaai

#240500
0aaaaa

#241000
1aaaaa
b11110001 aaaai

#241500
0aaaaa

#242000
1aaaaa
b11110010 aaaai

#242500
0aaaaa

#243000
1aaaaa
b11110011 aaaai

#243500
0aaaaa

#244000
1aaaaa
b11110100 aaaai

#244500
0aaaaa

#245000
1aaaaa
b11110101 aaaai

#245500
0aaaaa

#246000
1aaaaa
b11110110 aaaai

#246500
0aaaaa

#247000
1aaaaa
b11110111 aaaai

#247500
0aaaaa

#248000
1aaaaa
b11111000 aaaai

#248500
0aaaaa

#249000
1aaaaa
b11111001 aaaai

#249500
0aaaaa

#250000
1aaaaa
b11111010 aaaai

#250500
0aaaaa

#251000
1aaaaa
b11111011 aaaai

#251500
0aaaaa

#252000
1aaaaa
b11111100 aaaai

#252500
0aaaaa

#253000
1aaaaa
b11111101 aaaai

#253500
0aaaaa

#254000
1aaaaa
b11111110 aaaai

#254500
0aaaaa

#255000
1aaaaa
b11111111 aaaai

#255500
0aaaaa

#256000
1aaaaa
1aaaag
b0 aaaai
b11 aaaak

#256500
0aaaaa

#257000
1aaaaa
b11 aaaac
0aaaae
0aaaag
b1 aaaai

#257500
0aaaaa

#258000
1aaaaa
b0 aaaac
b0 aaaad
1aaaae
b0 aaaah

#258500
0aaaaa

#259000
1aaaaa

#259500
0aaaaa

#260000
1aaaaa

#260500
0aaaaa

#261000
1aaaaa

#261500
0aaaaa

#262000
1aaaaa

#262500
0aaaaa

#263000
1aaaaa

#263500
0aaaaa

#264000
1aaaaa

#264500
0aaaaa

#265000
1aaaaa

#265500
0aaaaa

#266000
1aaaaa

#266500
0aaaaa

#267000
1aaaaa

#267500
0aaaaa

#268000
1aaaaa

#268500
0aaaaa

#269000
1aaaaa
b11 aaaac
0aaaae

#269500
0aaaaa

#270000
1aaaaa
b1 aaaad
1aaaae
b10 aaaak

#270500
0aaaaa

#271000
1aaaaa
b10 aaaad
b0 aaaak

